<?xml version="1.0" encoding="UTF-8"?>
<session version="1.0">
<refactoring comment="Copy package &apos;exercise.algebra.number&apos; to &apos;ubung4/src&apos;&#x0A;- Original project: &apos;u3&apos;&#x0A;- Destination element: &apos;ubung4/src&apos;&#x0A;- Original element: &apos;u3/src/exercise.algebra.number&apos;" description="Copy package" destination="=ubung4/src" element1="/src&lt;exercise.algebra.number" flags="589830" fragments="1" id="org.eclipse.jdt.ui.copy" policy="org.eclipse.jdt.ui.copyPackages" stamp="1433099349571" version="1.0"/>
</session>